<svg width="24" height="24" viewBox="0 0 24 24" fill="none" xmlns="http://www.w3.org/2000/svg">
<path d="M17.2406 7.13765C17.7575 6.62078 18.5955 6.62078 19.1123 7.13765C19.6292 7.65452 19.6292 8.49254 19.1123 9.00941L11.1712 16.9506C10.6543 17.4675 9.81629 17.4675 9.29942 16.9506L4.88765 12.5388C4.37078 12.0219 4.37078 11.1839 4.88765 10.6671C5.40452 10.1502 6.24254 10.1502 6.75941 10.6671L10.2353 14.143L17.2406 7.13765Z" fill="#25353C"/>
</svg>
