<svg width="24" height="24" viewBox="0 0 24 24" fill="none" xmlns="http://www.w3.org/2000/svg">
<path d="M21.1875 8.25C21.912 8.25 22.5 8.838 22.5 9.5625V18.75C22.5 19.4745 21.912 20.0625 21.1875 20.0625H18.5625V24L14.625 20.0625H8.0625L10.4618 17.4375H18.5625C19.287 17.4375 19.875 16.8495 19.875 16.125V8.25H21.1875ZM2.8125 3H15.9375C16.662 3 17.25 3.588 17.25 4.3125V13.5C17.25 14.2245 16.662 14.8125 15.9375 14.8125H9.375L5.4375 18.75V14.8125H2.8125C2.088 14.8125 1.5 14.2245 1.5 13.5V4.3125C1.5 3.588 2.088 3 2.8125 3Z" fill="#25353C"/>
</svg>
